ply
format ascii 1.0
element vertex 264
property float x
property float y
property float z
element face 72
property list uchar uint vertex_indices
end_header
0.454850 -0.900214 -0.379969 0.664055 -0.606128 -0.437767 0.000000 0.166667
0.271837 -0.766348 -0.629914 0.664055 -0.606128 -0.437767 0.083333 0.166667
0.299346 -0.381701 -1.333782 0.664055 -0.606128 -0.437767 0.083333 0.333333
0.736648 -0.534189 -0.246281 0.664055 -0.606128 -0.437767 0.000000 0.333333
0.271837 -0.766348 -0.629914 0.462742 -0.874823 -0.143369 0.083333 0.166667
0.021837 -0.565549 -1.107656 0.462742 -0.874823 -0.143369 0.166667 0.166667
-0.013352 -0.634310 -2.356076 0.462742 -0.874823 -0.143369 0.166667 0.333333
0.299346 -0.381701 -1.333782 0.462742 -0.874823 -0.143369 0.083333 0.333333
0.021837 -0.565549 -1.107656 -0.413770 -0.905423 -0.094891 0.166667 0.166667
-0.228163 -0.721727 -0.585293 -0.413770 -0.905423 -0.094891 0.250000 0.166667
-0.342092 -0.381701 -1.274977 -0.413770 -0.905423 -0.094891 0.250000 0.333333
-0.013352 -0.634310 -2.356076 -0.413770 -0.905423 -0.094891 0.166667 0.333333
-0.228163 -0.721727 -0.585293 -0.580134 -0.684567 -0.441376 0.250000 0.166667
-0.411176 -0.900214 -0.379969 -0.580134 -0.684567 -0.441376 0.333333 0.166667
-0.660384 -0.534189 -0.308061 -0.580134 -0.684567 -0.441376 0.333333 0.333333
-0.342092 -0.381701 -1.274977 -0.580134 -0.684567 -0.441376 0.250000 0.333333
-0.411176 -0.900214 -0.379969 -0.756191 -0.613048 -0.228796 0.333333 0.166667
-0.513352 -0.900214 0.186732 -0.756191 -0.613048 -0.228796 0.416667 0.166667
-0.879377 -0.534189 0.186732 -0.756191 -0.613048 -0.228796 0.416667 0.333333
-0.660384 -0.534189 -0.308061 -0.756191 -0.613048 -0.228796 0.333333 0.333333
-0.513352 -0.900214 0.186732 -0.501989 -0.653715 0.566271 0.416667 0.166667
-0.421819 -0.879060 0.194223 -0.501989 -0.653715 0.566271 0.500000 0.166667
-0.546786 -0.534189 0.579640 -0.501989 -0.653715 0.566271 0.500000 0.333333
-0.879377 -0.534189 0.186732 -0.501989 -0.653715 0.566271 0.416667 0.333333
-0.421819 -0.879060 0.194223 -0.635606 -0.724352 0.267058 0.500000 0.166667
-0.238806 -0.879060 0.377235 -0.635606 -0.724352 0.267058 0.583333 0.166667
-0.254326 -0.512149 1.588046 -0.635606 -0.724352 0.267058 0.583333 0.333333
-0.546786 -0.534189 0.579640 -0.635606 -0.724352 0.267058 0.500000 0.333333
-0.238806 -0.879060 0.377235 -0.485436 -0.829665 0.275694 0.583333 0.166667
0.011194 -1.122159 0.219823 -0.485436 -0.829665 0.275694 0.666667 0.166667
-0.013352 -0.534189 1.812052 -0.485436 -0.829665 0.275694 0.666667 0.333333
-0.254326 -0.512149 1.588046 -0.485436 -0.829665 0.275694 0.583333 0.333333
0.011194 -1.122159 0.219823 0.513252 -0.806975 0.292172 0.666667 0.166667
0.261194 -0.879060 0.377235 0.513252 -0.806975 0.292172 0.750000 0.166667
0.233568 -0.490701 1.573261 0.513252 -0.806975 0.292172 0.750000 0.333333
-0.013352 -0.534189 1.812052 0.513252 -0.806975 0.292172 0.666667 0.333333
0.261194 -0.879060 0.377235 0.653736 -0.692331 0.305461 0.750000 0.166667
0.444206 -0.900246 0.194223 0.653736 -0.692331 0.305461 0.833333 0.166667
0.528103 -0.534189 0.587661 0.653736 -0.692331 0.305461 0.833333 0.333333
0.233568 -0.490701 1.573261 0.653736 -0.692331 0.305461 0.750000 0.333333
0.444206 -0.900246 0.194223 0.576219 -0.632382 0.517749 0.833333 0.166667
0.486648 -0.900214 0.186732 0.576219 -0.632382 0.517749 0.916667 0.166667
0.852673 -0.534189 0.186732 0.576219 -0.632382 0.517749 0.916667 0.333333
0.528103 -0.534189 0.587661 0.576219 -0.632382 0.517749 0.833333 0.333333
0.486648 -0.900214 0.186732 0.754223 -0.647078 -0.111523 0.916667 0.166667
0.454850 -0.900214 -0.379969 0.754223 -0.647078 -0.111523 1.000000 0.166667
0.736648 -0.534189 -0.246281 0.754223 -0.647078 -0.111523 1.000000 0.333333
0.852673 -0.534189 0.186732 0.754223 -0.647078 -0.111523 0.916667 0.333333
0.736648 -0.534189 -0.246281 0.934780 -0.070276 -0.348207 0.000000 0.333333
0.299346 -0.381701 -1.333782 0.934780 -0.070276 -0.348207 0.083333 0.333333
0.159448 -0.030706 -1.897421 0.934780 -0.070276 -0.348207 0.083333 0.500000
0.644790 -0.034189 -0.476555 0.934780 -0.070276 -0.348207 0.000000 0.500000
0.299346 -0.381701 -1.333782 0.959890 -0.068136 -0.271973 0.083333 0.333333
-0.013352 -0.634310 -2.356076 0.959890 -0.068136 -0.271973 0.166667 0.333333
-0.013352 -0.096910 -2.508750 0.959890 -0.068136 -0.271973 0.166667 0.500000
0.159448 -0.030706 -1.897421 0.959890 -0.068136 -0.271973 0.083333 0.500000
-0.013352 -0.634310 -2.356076 -0.963159 -0.040190 -0.265912 0.166667 0.333333
-0.342092 -0.381701 -1.274977 -0.963159 -0.040190 -0.265912 0.250000 0.333333
-0.174971 -0.036154 -1.861080 -0.963159 -0.040190 -0.265912 0.250000 0.500000
-0.013352 -0.096910 -2.508750 -0.963159 -0.040190 -0.265912 0.166667 0.500000
-0.342092 -0.381701 -1.274977 -0.954460 -0.000038 -0.298339 0.250000 0.333333
-0.660384 -0.534189 -0.308061 -0.954460 -0.000038 -0.298339 0.333333 0.333333
-0.597956 -0.034189 -0.456449 -0.954460 -0.000038 -0.298339 0.333333 0.500000
-0.174971 -0.036154 -1.861080 -0.954460 -0.000038 -0.298339 0.250000 0.500000
-0.660384 -0.534189 -0.308061 -0.865623 -0.133539 -0.482561 0.333333 0.333333
-0.879377 -0.534189 0.186732 -0.865623 -0.133539 -0.482561 0.416667 0.333333
-1.013352 -0.034189 0.186732 -0.865623 -0.133539 -0.482561 0.416667 0.500000
-0.597956 -0.034189 -0.456449 -0.865623 -0.133539 -0.482561 0.333333 0.500000
-0.879377 -0.534189 0.186732 -0.739754 -0.181025 0.648069 0.416667 0.333333
-0.546786 -0.534189 0.579640 -0.739754 -0.181025 0.648069 0.500000 0.333333
-0.771540 -0.034189 0.449490 -0.739754 -0.181025 0.648069 0.500000 0.500000
-1.013352 -0.034189 0.186732 -0.739754 -0.181025 0.648069 0.416667 0.500000
-0.546786 -0.534189 0.579640 -0.907710 -0.310833 0.281861 0.500000 0.333333
-0.254326 -0.512149 1.588046 -0.907710 -0.310833 0.281861 0.583333 0.333333
-0.344408 -0.023596 1.794458 -0.907710 -0.310833 0.281861 0.583333 0.500000
-0.771540 -0.034189 0.449490 -0.907710 -0.310833 0.281861 0.500000 0.500000
-0.254326 -0.512149 1.588046 -0.532889 -0.318498 0.783957 0.583333 0.333333
-0.013352 -0.534189 1.812052 -0.532889 -0.318498 0.783957 0.666667 0.333333
-0.013352 -0.034189 1.946027 -0.532889 -0.318498 0.783957 0.666667 0.500000
-0.344408 -0.023596 1.794458 -0.532889 -0.318498 0.783957 0.583333 0.500000
-0.013352 -0.534189 1.812052 0.536544 -0.340334 0.772200 0.666667 0.333333
0.233568 -0.490701 1.573261 0.536544 -0.340334 0.772200 0.750000 0.333333
0.310521 -0.023596 1.812052 0.536544 -0.340334 0.772200 0.750000 0.500000
-0.013352 -0.034189 1.946027 0.536544 -0.340334 0.772200 0.666667 0.500000
0.233568 -0.490701 1.573261 0.890440 -0.341613 0.300696 0.750000 0.333333
0.528103 -0.534189 0.587661 0.890440 -0.341613 0.300696 0.833333 0.333333
0.801733 -0.013035 0.433439 0.890440 -0.341613 0.300696 0.833333 0.500000
0.310521 -0.023596 1.812052 0.890440 -0.341613 0.300696 0.750000 0.500000
0.528103 -0.534189 0.587661 0.764469 -0.213267 0.608362 0.833333 0.333333
0.852673 -0.534189 0.186732 0.764469 -0.213267 0.608362 0.916667 0.333333
0.986648 -0.034189 0.186732 0.764469 -0.213267 0.608362 0.916667 0.500000
0.801733 -0.013035 0.433439 0.764469 -0.213267 0.608362 0.833333 0.500000
0.852673 -0.534189 0.186732 0.915328 -0.126584 -0.382298 0.916667 0.333333
0.736648 -0.534189 -0.246281 0.915328 -0.126584 -0.382298 1.000000 0.333333
0.644790 -0.034189 -0.476555 0.915328 -0.126584 -0.382298 1.000000 0.500000
0.986648 -0.034189 0.186732 0.915328 -0.126584 -0.382298 0.916667 0.500000
0.644790 -0.034189 -0.476555 0.906658 0.286743 -0.309434 0.000000 0.500000
0.159448 -0.030706 -1.897421 0.906658 0.286743 -0.309434 0.083333 0.500000
0.235179 0.378051 -1.294727 0.906658 0.286743 -0.309434 0.083333 0.666667
0.454169 0.465813 -0.573765 0.906658 0.286743 -0.309434 0.000000 0.666667
0.159448 -0.030706 -1.897421 0.969464 0.082765 -0.230846 0.083333 0.500000
-0.013352 -0.096910 -2.508750 0.969464 0.082765 -0.230846 0.166667 0.500000
-0.013352 0.870589 -2.299976 0.969464 0.082765 -0.230846 0.166667 0.666667
0.235179 0.378051 -1.294727 0.969464 0.082765 -0.230846 0.083333 0.666667
-0.013352 -0.096910 -2.508750 -0.976855 0.077641 -0.199313 0.166667 0.500000
-0.174971 -0.036154 -1.861080 -0.976855 0.077641 -0.199313 0.250000 0.500000
-0.221168 0.359351 -1.312487 -0.976855 0.077641 -0.199313 0.250000 0.666667
-0.013352 0.870589 -2.299976 -0.976855 0.077641 -0.199313 0.166667 0.666667
-0.174971 -0.036154 -1.861080 -0.916993 0.295799 -0.267632 0.250000 0.500000
-0.597956 -0.034189 -0.456449 -0.916993 0.295799 -0.267632 0.333333 0.500000
-0.392336 0.465813 -0.561521 -0.916993 0.295799 -0.267632 0.333333 0.666667
-0.221168 0.359351 -1.312487 -0.916993 0.295799 -0.267632 0.250000 0.666667
-0.597956 -0.034189 -0.456449 -0.818046 0.222057 -0.530557 0.333333 0.500000
-1.013352 -0.034189 0.186732 -0.818046 0.222057 -0.530557 0.416667 0.500000
-0.879377 0.465811 0.186732 -0.818046 0.222057 -0.530557 0.416667 0.666667
-0.392336 0.465813 -0.561521 -0.818046 0.222057 -0.530557 0.333333 0.666667
-1.013352 -0.034189 0.186732 -0.736013 0.183674 0.651574 0.416667 0.500000
-0.771540 -0.034189 0.449490 -0.736013 0.183674 0.651574 0.500000 0.500000
-0.536844 0.482567 0.579322 -0.736013 0.183674 0.651574 0.500000 0.666667
-0.879377 0.465811 0.186732 -0.736013 0.183674 0.651574 0.416667 0.666667
-0.771540 -0.034189 0.449490 -0.913564 0.303251 0.270996 0.500000 0.500000
-0.344408 -0.023596 1.794458 -0.913564 0.303251 0.270996 0.583333 0.500000
-0.294825 0.512402 1.444911 -0.913564 0.303251 0.270996 0.583333 0.666667
-0.536844 0.482567 0.579322 -0.913564 0.303251 0.270996 0.500000 0.666667
-0.344408 -0.023596 1.794458 -0.351578 0.527808 0.773183 0.583333 0.500000
-0.013352 -0.034189 1.946027 -0.351578 0.527808 0.773183 0.666667 0.500000
-0.013352 0.512402 1.579099 -0.351578 0.527808 0.773183 0.666667 0.666667
-0.294825 0.512402 1.444911 -0.351578 0.527808 0.773183 0.583333 0.666667
-0.013352 -0.034189 1.946027 0.317143 0.532658 0.784663 0.666667 0.500000
0.310521 -0.023596 1.812052 0.317143 0.532658 0.784663 0.750000 0.500000
0.246029 0.504163 1.475738 0.317143 0.532658 0.784663 0.750000 0.666667
-0.013352 0.512402 1.579099 0.317143 0.532658 0.784663 0.666667 0.666667
0.310521 -0.023596 1.812052 0.884369 0.365773 0.290004 0.750000 0.500000
0.801733 -0.013035 0.433439 0.884369 0.365773 0.290004 0.833333 0.500000
0.514121 0.462104 0.578573 0.884369 0.365773 0.290004 0.833333 0.666667
0.246029 0.504163 1.475738 0.884369 0.365773 0.290004 0.750000 0.666667
0.801733 -0.013035 0.433439 0.754800 0.235189 0.612342 0.833333 0.500000
0.986648 -0.034189 0.186732 0.754800 0.235189 0.612342 0.916667 0.500000
0.852673 0.465811 0.186732 0.754800 0.235189 0.612342 0.916667 0.666667
0.514121 0.462104 0.578573 0.754800 0.235189 0.612342 0.833333 0.666667
0.986648 -0.034189 0.186732 0.862102 0.236256 -0.448289 0.916667 0.500000
0.644790 -0.034189 -0.476555 0.862102 0.236256 -0.448289 1.000000 0.500000
0.454169 0.465813 -0.573765 0.862102 0.236256 -0.448289 1.000000 0.666667
0.852673 0.465811 0.186732 0.862102 0.236256 -0.448289 0.916667 0.666667
0.454169 0.465813 -0.573765 0.853821 0.433800 -0.287762 0.000000 0.666667
0.235179 0.378051 -1.294727 0.853821 0.433800 -0.287762 0.083333 0.666667
0.271837 0.831838 -0.562982 0.853821 0.433800 -0.287762 0.083333 0.833333
0.419661 0.831837 -0.063268 0.853821 0.433800 -0.287762 0.000000 0.833333
0.235179 0.378051 -1.294727 0.686563 0.720619 -0.096647 0.083333 0.666667
-0.013352 0.870589 -2.299976 0.686563 0.720619 -0.096647 0.166667 0.666667
-0.002568 0.638704 -1.040160 0.686563 0.720619 -0.096647 0.166667 0.833333
0.271837 0.831838 -0.562982 0.686563 0.720619 -0.096647 0.083333 0.833333
-0.013352 0.870589 -2.299976 -0.747016 0.660256 -0.077652 0.166667 0.666667
-0.221168 0.359351 -1.312487 -0.747016 0.660256 -0.077652 0.250000 0.666667
-0.228163 0.831838 -0.562982 -0.747016 0.660256 -0.077652 0.250000 0.833333
-0.002568 0.638704 -1.040160 -0.747016 0.660256 -0.077652 0.166667 0.833333
-0.221168 0.359351 -1.312487 -0.869729 0.388886 -0.303873 0.250000 0.666667
-0.392336 0.465813 -0.561521 -0.869729 0.388886 -0.303873 0.333333 0.666667
-0.446365 0.831837 -0.063268 -0.869729 0.388886 -0.303873 0.333333 0.833333
-0.228163 0.831838 -0.562982 -0.869729 0.388886 -0.303873 0.250000 0.833333
-0.392336 0.465813 -0.561521 -0.715319 0.575074 -0.396999 0.333333 0.666667
-0.879377 0.465811 0.186732 -0.715319 0.575074 -0.396999 0.416667 0.666667
-0.513352 0.831837 0.186732 -0.715319 0.575074 -0.396999 0.416667 0.833333
-0.446365 0.831837 -0.063268 -0.715319 0.575074 -0.396999 0.333333 0.833333
-0.879377 0.465811 0.186732 -0.787016 0.483562 0.383110 0.416667 0.666667
-0.536844 0.482567 0.579322 -0.787016 0.483562 0.383110 0.500000 0.666667
-0.421819 0.922017 0.550861 -0.787016 0.483562 0.383110 0.500000 0.833333
-0.513352 0.831837 0.186732 -0.787016 0.483562 0.383110 0.416667 0.833333
-0.536844 0.482567 0.579322 -0.787069 0.510809 0.345828 0.500000 0.666667
-0.294825 0.512402 1.444911 -0.787069 0.510809 0.345828 0.583333 0.666667
-0.165268 0.922017 0.775896 -0.787069 0.510809 0.345828 0.583333 0.833333
-0.421819 0.922017 0.550861 -0.787069 0.510809 0.345828 0.500000 0.833333
-0.294825 0.512402 1.444911 -0.390104 0.788309 0.475803 0.583333 0.666667
-0.013352 0.512402 1.579099 -0.390104 0.788309 0.475803 0.666667 0.666667
0.000688 1.352116 0.295962 -0.390104 0.788309 0.475803 0.666667 0.833333
-0.165268 0.922017 0.775896 -0.390104 0.788309 0.475803 0.583333 0.833333
-0.013352 0.512402 1.579099 0.416635 0.777032 0.471843 0.666667 0.666667
0.246029 0.504163 1.475738 0.416635 0.777032 0.471843 0.750000 0.666667
0.156138 0.922017 0.754885 0.416635 0.777032 0.471843 0.750000 0.833333
0.000688 1.352116 0.295962 0.416635 0.777032 0.471843 0.666667 0.833333
0.246029 0.504163 1.475738 0.794333 0.471392 0.383177 0.750000 0.666667
0.514121 0.462104 0.578573 0.794333 0.471392 0.383177 0.833333 0.666667
0.444206 0.922017 0.550861 0.794333 0.471392 0.383177 0.833333 0.833333
0.156138 0.922017 0.754885 0.794333 0.471392 0.383177 0.750000 0.833333
0.514121 0.462104 0.578573 0.819303 0.444585 0.362058 0.833333 0.666667
0.852673 0.465811 0.186732 0.819303 0.444585 0.362058 0.916667 0.666667
0.486648 0.831837 0.186732 0.819303 0.444585 0.362058 0.916667 0.833333
0.444206 0.922017 0.550861 0.819303 0.444585 0.362058 0.833333 0.833333
0.852673 0.465811 0.186732 0.713144 0.619278 -0.328513 0.916667 0.666667
0.454169 0.465813 -0.573765 0.713144 0.619278 -0.328513 1.000000 0.666667
0.419661 0.831837 -0.063268 0.713144 0.619278 -0.328513 1.000000 0.833333
0.486648 0.831837 0.186732 0.713144 0.619278 -0.328513 0.916667 0.833333
0.271837 -0.766348 -0.629914 0.174510 -0.809123 -0.561130 0.083333 0.166667
0.454850 -0.900214 -0.379969 0.174510 -0.809123 -0.561130 0.000000 0.166667
-0.013352 -1.123432 -0.203709 0.174510 -0.809123 -0.561130 0.041667 0.000000
0.021837 -0.565549 -1.107656 0.287147 -0.820100 -0.494957 0.166667 0.166667
0.271837 -0.766348 -0.629914 0.287147 -0.820100 -0.494957 0.083333 0.166667
-0.013352 -1.123432 -0.203709 0.287147 -0.820100 -0.494957 0.125000 0.000000
-0.228163 -0.721727 -0.585293 -0.519552 -0.717925 -0.463302 0.250000 0.166667
0.021837 -0.565549 -1.107656 -0.519552 -0.717925 -0.463302 0.166667 0.166667
-0.013352 -1.123432 -0.203709 -0.519552 -0.717925 -0.463302 0.208333 0.000000
-0.411176 -0.900214 -0.379969 -0.089647 -0.710725 -0.697735 0.333333 0.166667
-0.228163 -0.721727 -0.585293 -0.089647 -0.710725 -0.697735 0.250000 0.166667
-0.013352 -1.123432 -0.203709 -0.089647 -0.710725 -0.697735 0.291667 0.000000
-0.513352 -0.900214 0.186732 -0.459482 -0.884315 -0.082844 0.416667 0.166667
-0.411176 -0.900214 -0.379969 -0.459482 -0.884315 -0.082844 0.333333 0.166667
-0.013352 -1.123432 -0.203709 -0.459482 -0.884315 -0.082844 0.375000 0.000000
-0.421819 -0.879060 0.194223 0.130093 -0.779771 0.612399 0.500000 0.166667
-0.513352 -0.900214 0.186732 0.130093 -0.779771 0.612399 0.416667 0.166667
-0.013352 -1.123432 -0.203709 0.130093 -0.779771 0.612399 0.458333 0.000000
-0.238806 -0.879060 0.377235 -0.278539 -0.919147 0.278540 0.583333 0.166667
-0.421819 -0.879060 0.194223 -0.278539 -0.919147 0.278540 0.500000 0.166667
-0.013352 -1.123432 -0.203709 -0.278539 -0.919147 0.278540 0.541667 0.000000
0.011194 -1.122159 0.219823 -0.682892 -0.729324 0.041770 0.666667 0.166667
-0.238806 -0.879060 0.377235 -0.682892 -0.729324 0.041770 0.583333 0.166667
-0.013352 -1.123432 -0.203709 -0.682892 -0.729324 0.041770 0.625000 0.000000
0.261194 -0.879060 0.377235 0.709120 -0.704009 -0.038981 0.750000 0.166667
0.011194 -1.122159 0.219823 0.709120 -0.704009 -0.038981 0.666667 0.166667
-0.013352 -1.123432 -0.203709 0.709120 -0.704009 -0.038981 0.708333 0.000000
0.444206 -0.900246 0.194223 0.193312 -0.933696 0.301400 0.833333 0.166667
0.261194 -0.879060 0.377235 0.193312 -0.933696 0.301400 0.750000 0.166667
-0.013352 -1.123432 -0.203709 0.193312 -0.933696 0.301400 0.791667 0.000000
0.486648 -0.900214 0.186732 0.074961 -0.904030 0.420845 0.916667 0.166667
0.444206 -0.900246 0.194223 0.074961 -0.904030 0.420845 0.833333 0.166667
-0.013352 -1.123432 -0.203709 0.074961 -0.904030 0.420845 0.875000 0.000000
0.454850 -0.900214 -0.379969 0.422935 -0.905849 -0.023731 1.000000 0.166667
0.486648 -0.900214 0.186732 0.422935 -0.905849 -0.023731 0.916667 0.166667
-0.013352 -1.123432 -0.203709 0.422935 -0.905849 -0.023731 0.958333 0.000000
0.419661 0.831837 -0.063268 0.781096 0.580087 -0.231060 0.000000 0.833333
0.271837 0.831838 -0.562982 0.781096 0.580087 -0.231060 0.083333 0.833333
0.007458 1.391672 -0.051223 0.781096 0.580087 -0.231060 0.041667 1.000000
0.271837 0.831838 -0.562982 0.447752 0.709224 -0.544536 0.083333 0.833333
-0.002568 0.638704 -1.040160 0.447752 0.709224 -0.544536 0.166667 0.833333
0.007458 1.391672 -0.051223 0.447752 0.709224 -0.544536 0.125000 1.000000
-0.002568 0.638704 -1.040160 -0.507976 0.687806 -0.518540 0.166667 0.833333
-0.228163 0.831838 -0.562982 -0.507976 0.687806 -0.518540 0.250000 0.833333
0.007458 1.391672 -0.051223 -0.507976 0.687806 -0.518540 0.208333 1.000000
-0.228163 0.831838 -0.562982 -0.732622 0.600773 -0.319901 0.250000 0.833333
-0.446365 0.831837 -0.063268 -0.732622 0.600773 -0.319901 0.333333 0.833333
0.007458 1.391672 -0.051223 -0.732622 0.600773 -0.319901 0.291667 1.000000
-0.446365 0.831837 -0.063268 -0.758467 0.619214 -0.203230 0.333333 0.833333
-0.513352 0.831837 0.186732 -0.758467 0.619214 -0.203230 0.416667 0.833333
0.007458 1.391672 -0.051223 -0.758467 0.619214 -0.203230 0.375000 1.000000
-0.513352 0.831837 0.186732 -0.729154 0.684209 0.013840 0.416667 0.833333
-0.421819 0.922017 0.550861 -0.729154 0.684209 0.013840 0.500000 0.833333
0.007458 1.391672 -0.051223 -0.729154 0.684209 0.013840 0.458333 1.000000
-0.421819 0.922017 0.550861 -0.354822 0.842893 0.404515 0.500000 0.833333
-0.165268 0.922017 0.775896 -0.354822 0.842893 0.404515 0.583333 0.833333
0.007458 1.391672 -0.051223 -0.354822 0.842893 0.404515 0.541667 1.000000
-0.165268 0.922017 0.775896 -0.922617 0.384849 0.025857 0.583333 0.833333
0.000688 1.352116 0.295962 -0.922617 0.384849 0.025857 0.666667 0.833333
0.007458 1.391672 -0.051223 -0.922617 0.384849 0.025857 0.625000 1.000000
0.000688 1.352116 0.295962 0.915118 0.398199 0.063213 0.666667 0.833333
0.156138 0.922017 0.754885 0.915118 0.398199 0.063213 0.750000 0.833333
0.007458 1.391672 -0.051223 0.915118 0.398199 0.063213 0.708333 1.000000
0.156138 0.922017 0.754885 0.308591 0.845535 0.435709 0.750000 0.833333
0.444206 0.922017 0.550861 0.308591 0.845535 0.435709 0.833333 0.833333
0.007458 1.391672 -0.051223 0.308591 0.845535 0.435709 0.791667 1.000000
0.444206 0.922017 0.550861 0.771832 0.632325 -0.066638 0.833333 0.833333
0.486648 0.831837 0.186732 0.771832 0.632325 -0.066638 0.916667 0.833333
0.007458 1.391672 -0.051223 0.771832 0.632325 -0.066638 0.875000 1.000000
0.486648 0.831837 0.186732 0.785081 0.582577 -0.210361 0.916667 0.833333
0.419661 0.831837 -0.063268 0.785081 0.582577 -0.210361 1.000000 0.833333
0.007458 1.391672 -0.051223 0.785081 0.582577 -0.210361 0.958333 1.000000
4 0 1 2 3
4 4 5 6 7
4 8 9 10 11
4 12 13 14 15
4 16 17 18 19
4 20 21 22 23
4 24 25 26 27
4 28 29 30 31
4 32 33 34 35
4 36 37 38 39
4 40 41 42 43
4 44 45 46 47
4 48 49 50 51
4 52 53 54 55
4 56 57 58 59
4 60 61 62 63
4 64 65 66 67
4 68 69 70 71
4 72 73 74 75
4 76 77 78 79
4 80 81 82 83
4 84 85 86 87
4 88 89 90 91
4 92 93 94 95
4 96 97 98 99
4 100 101 102 103
4 104 105 106 107
4 108 109 110 111
4 112 113 114 115
4 116 117 118 119
4 120 121 122 123
4 124 125 126 127
4 128 129 130 131
4 132 133 134 135
4 136 137 138 139
4 140 141 142 143
4 144 145 146 147
4 148 149 150 151
4 152 153 154 155
4 156 157 158 159
4 160 161 162 163
4 164 165 166 167
4 168 169 170 171
4 172 173 174 175
4 176 177 178 179
4 180 181 182 183
4 184 185 186 187
4 188 189 190 191
3 192 193 194
3 195 196 197
3 198 199 200
3 201 202 203
3 204 205 206
3 207 208 209
3 210 211 212
3 213 214 215
3 216 217 218
3 219 220 221
3 222 223 224
3 225 226 227
3 228 229 230
3 231 232 233
3 234 235 236
3 237 238 239
3 240 241 242
3 243 244 245
3 246 247 248
3 249 250 251
3 252 253 254
3 255 256 257
3 258 259 260
3 261 262 263
